module bootcamp/article

go 1.16

require (
	github.com/gin-gonic/gin v1.7.4
	github.com/swaggo/files v0.0.0-20210815190702-a29dd2bc99b2
	github.com/swaggo/gin-swagger v1.3.3
	github.com/swaggo/swag v1.7.4
)
